Acemoglu2001
…
## Warning: attributes are not identical across measure variables;
## they will be dropped

data3$Q <- rep(Q, times = length(vars)) 

data3 %>% 
  group_by(key, Q) %>%
  summarise(
  Mean = mean(value, na.rm = T)
)

## `summarise()` has grouped output by 'key'. You can override using the `.groups` argument.

## # A tibble: 32 x 3
## # Groups:   key [8]
##    key     Q      Mean
##    <chr>   <fct> <dbl>
##  1 avexpr  a      7.74
##  2 avexpr  b      6.36
##  3 avexpr  c      5.97
##  4 avexpr  d      5.89
##  5 cons00a a      4.07
##  6 cons00a b      2.8 
##  7 cons00a c      1.12
##  8 cons00a d      1   
##  9 cons1   a      4.33
## 10 cons1   b      2.73
## #  with 22 more rows
…
